lab5/2_lab7_hdl_LUT/simulation/sim/dump.vcd
$date
	Sun Dec 10 22:20:45 2023
$end
$version
	Icarus Verilog
$end
$timescale
	1ns
$end
$scope module testbench $end
$var wire 1 ! y $end
$var reg 4 " x [3:0] $end
$scope module dut $end
$var wire 4 # x [3:0] $end
$var reg 1 ! y $end
$upscope $end
$upscope $end
$enddefinitions $end
$comment Show the parameter values. $end
$dumpall
$end
#0
$dumpvars
b0 #
b0 "
0!
$end
#10
b1 "
b1 #
#20
b10 "
b10 #
#30
b11 "
b11 #
#40
b100 "
b100 #
#50
b101 "
b101 #
#60
b110 "
b110 #
#70
b111 "
b111 #
#80
b1000 "
b1000 #
#90
b1001 "
b1001 #
#100
b1010 "
b1010 #
#110
b1011 "
b1011 #
#120
b1100 "
b1100 #
#130
b1101 "
b1101 #
#140
b1110 "
b1110 #
#150
1!
b1111 "
b1111 #
